module test2

go 1.19

require (
	github.com/sirupsen/logrus v1.9.3
	github.com/spf13/cobra v1.7.0
)

require (
	github.com/inconshreveable/mousetrap v1.1.0 // indirect
	github.com/spf13/pflag v1.0.5 // indirect
	golang.org/x/sys v0.5.0 // indirect
)
